<svg width="84" height="40" viewBox="0 0 84 40" fill="none" xmlns="http://www.w3.org/2000/svg">
<path d="M68.669 39.1435H9.43417V39.1306C-1.72171 38.8588 -0.155762 32.9444 1.85023 29.7089C4.7492 25.024 12.3331 27.0299 12.3331 27.0299C12.3331 27.0299 10.0166 15.8999 20.59 10.982C29.7399 6.73711 36.4309 11.655 36.4309 11.655C36.4309 11.655 47.1338 -3.95286 66.3266 1.61214C85.364 7.15125 83.5004 24.8169 83.5004 24.8169C83.5004 24.8169 82.6463 39.1435 68.669 39.1435Z" fill="#EFD0D1"/>
</svg>
