<?xml version="1.0" standalone="no"?>
<!DOCTYPE svg PUBLIC "-//W3C//DTD SVG 20010904//EN"
 "http://www.w3.org/TR/2001/REC-SVG-20010904/DTD/svg10.dtd">
<svg version="1.0" xmlns="http://www.w3.org/2000/svg"
 width="128.000000pt" height="128.000000pt" viewBox="0 0 128.000000 128.000000"
 preserveAspectRatio="xMidYMid meet">
<metadata>
Created by potrace 1.14, written by Peter Selinger 2001-2017
</metadata>
<g transform="translate(0.000000,128.000000) scale(0.100000,-0.100000)"
fill="#000000" stroke="none">
<path d="M540 1273 c-39 -16 -61 -64 -50 -105 8 -25 122 -148 138 -148 12 0
118 103 131 127 17 32 13 75 -9 102 -19 22 -45 27 -120 22 -8 -1 -28 1 -45 3
-16 3 -37 2 -45 -1z"/>
<path d="M188 1063 c-63 -40 -64 -103 -3 -171 25 -27 45 -52 45 -54 0 -3 -41
-4 -91 -3 -60 1 -96 -3 -103 -11 -20 -19 -13 -295 9 -369 27 -97 85 -184 159
-242 l29 -23 -95 0 c-109 0 -121 -7 -109 -61 11 -50 27 -75 63 -101 33 -23 33
-23 426 -26 440 -3 442 -3 487 67 23 36 28 55 26 99 -1 22 -3 22 -123 22
l-122 0 29 30 c28 29 31 30 129 30 114 0 174 21 233 79 152 152 59 423 -153
443 -30 3 -38 8 -39 26 -1 12 -5 25 -8 29 -13 13 -178 9 -189 -4 -12 -15 -68
-17 -68 -3 0 6 -11 10 -25 10 -14 0 -25 -4 -25 -10 0 -14 -59 -12 -74 3 -9 8
-46 12 -119 12 -59 -1 -107 1 -107 3 0 3 21 27 46 54 43 46 45 52 42 96 -3 40
-8 50 -38 70 -26 17 -43 22 -65 17 -40 -8 -63 -9 -105 -1 -25 5 -43 1 -62 -11z
m890 -478 c12 -14 23 -33 23 -41 1 -8 2 -20 3 -26 8 -54 -55 -118 -115 -118
-37 0 -40 2 -33 23 19 60 29 116 29 158 l-1 46 35 -8 c20 -4 46 -20 59 -34z"/>
</g>
</svg>
